Exploring the BRFSS data
…
Now, take a look at proportion by state of respondents who said they had diabetes.

#Calculate diabetes' proportion for each state 
diabetstate_yes_proportion <- diabetStatusResidents %>% 
  select(X_state, diabetStatus) %>% 
  group_by(X_state) %>% 
  summarise( yes_proportion_state = sum(diabetStatus == "Yes")/n()) %>%
  arrange(desc(yes_proportion_state)) 
diabetstate_yes_proportion

## # A tibble: 53 x 2
##    X_state        yes_proportion_state
##    <fct>                         <dbl>
##  1 Puerto Rico                   0.188
##  2 Alabama                       0.186
##  3 Mississippi                   0.181
##  4 South Carolina                0.169
##  5 Tennessee                     0.161
##  6 Louisiana                     0.159
##  7 West Virginia                 0.157
##  8 Arkansas                      0.153
##  9 Florida                       0.152
## 10 Kentucky                      0.150
## #  with 43 more rows
…
